fable::TFEAM
…
---

## A simple example

```r
tsibbledata::ausretail
```

```
#> # A tsibble: 64,088 x 5 [1M]
#> # Key:       State, Industry [152]
#>    State                        Industry                                 `Series ID`    Month Turnover
#>    <chr>                        <chr>                                    <chr>          <mth>    <dbl>
#>  1 Australian Capital Territory Cafes, restaurants and catering services A3349849A   1982 Apr      4.4
#>  2 Australian Capital Territory Cafes, restaurants and catering services A3349849A   1982 May      3.4
#>  3 Australian Capital Territory Cafes, restaurants and catering services A3349849A   1982 Jun      3.6
#>  4 Australian Capital Territory Cafes, restaurants and catering services A3349849A   1982 Jul      4  
#>  5 Australian Capital Territory Cafes, restaurants and catering services A3349849A   1982 Aug      3.6
#>  6 Australian Capital Territory Cafes, restaurants and catering services A3349849A   1982 Sep      4.2
#>  7 Australian Capital Territory Cafes, restaurants and catering services A3349849A   1982 Oct      4.8
#>  8 Australian Capital Territory Cafes, restaurants and catering services A3349849A   1982 Nov      5.4
#>  9 Australian Capital Territory Cafes, restaurants and catering services A3349849A   1982 Dec      6.9
#> 10 Australian Capital Territory Cafes, restaurants and catering services A3349849A   1983 Jan      3.8
#> # ... with 64,078 more rows
```
…
---

## A more common/realistic example

```r
tsibbledata::elecdemand
```

```
#> # A tsibble: 17,520 x 4 [30m]
#>    index               Demand WorkDay Temperature
#>    <dttm>               <dbl>   <dbl>       <dbl>
#>  1 2014-01-01 00:00:00   3.91       0        18.2
#>  2 2014-01-01 00:30:00   3.67       0        17.9
#>  3 2014-01-01 01:00:00   3.50       0        17.6
#>  4 2014-01-01 01:30:00   3.34       0        16.8
#>  5 2014-01-01 02:00:00   3.20       0        16.3
#>  6 2014-01-01 02:30:00   3.10       0        16.6
#>  7 2014-01-01 03:00:00   3.04       0        16.6
#>  8 2014-01-01 03:30:00   3.01       0        16.7
#>  9 2014-01-01 04:00:00   3.02       0        16.2
#> 10 2014-01-01 04:30:00   3.03       0        16.6
#> # ... with 17,510 more rows
```
…
--

```r
tsibbledata::ausretail
```

```
#> # A tsibble: 64,088 x 5 [1M]
#> # Key:       State, Industry [152]
#>    State                        Industry                                 `Series ID`    Month Turnover
#>    <chr>                        <chr>                                    <chr>          <mth>    <dbl>
#>  1 Australian Capital Territory Cafes, restaurants and catering services A3349849A   1982 Apr      4.4
#>  2 Australian Capital Territory Cafes, restaurants and catering services A3349849A   1982 May      3.4
#>  3 Australian Capital Territory Cafes, restaurants and catering services A3349849A   1982 Jun      3.6
#>  4 Australian Capital Territory Cafes, restaurants and catering services A3349849A   1982 Jul      4  
#>  5 Australian Capital Territory Cafes, restaurants and catering services A3349849A   1982 Aug      3.6
#>  6 Australian Capital Territory Cafes, restaurants and catering services A3349849A   1982 Sep      4.2
#>  7 Australian Capital Territory Cafes, restaurants and catering services A3349849A   1982 Oct      4.8
#>  8 Australian Capital Territory Cafes, restaurants and catering services A3349849A   1982 Nov      5.4
#>  9 Australian Capital Territory Cafes, restaurants and catering services A3349849A   1982 Dec      6.9
#> 10 Australian Capital Territory Cafes, restaurants and catering services A3349849A   1983 Jan      3.8
#> # ... with 64,078 more rows
```
…
---

# Extract (broom::augment)

```r
augment(all_ets)
```

```
#> # A tsibble: 64,088 x 8 [1M]
#> # Key:       State, Industry [152]
#>    State            Industry                    Month State1           Industry1               Turnover .fitted   .resid
#>    <chr>            <chr>                       <mth> <chr>            <chr>                      <dbl>   <dbl>    <dbl>
#>  1 Australian Capi… Cafes, restaurants and…  1982 Apr Australian Capi… Cafes, restaurants and…      4.4    3.92  0.124  
#>  2 Australian Capi… Cafes, restaurants and…  1982 May Australian Capi… Cafes, restaurants and…      3.4    3.92 -0.132  
#>  3 Australian Capi… Cafes, restaurants and…  1982 Jun Australian Capi… Cafes, restaurants and…      3.6    3.63 -0.00866
#>  4 Australian Capi… Cafes, restaurants and…  1982 Jul Australian Capi… Cafes, restaurants and…      4      4.32 -0.0747 
#>  5 Australian Capi… Cafes, restaurants and…  1982 Aug Australian Capi… Cafes, restaurants and…      3.6    4.15 -0.133  
#>  6 Australian Capi… Cafes, restaurants and…  1982 Sep Australian Capi… Cafes, restaurants and…      4.2    4.63 -0.0927 
#>  7 Australian Capi… Cafes, restaurants and…  1982 Oct Australian Capi… Cafes, restaurants and…      4.8    4.96 -0.0331 
#>  8 Australian Capi… Cafes, restaurants and…  1982 Nov Australian Capi… Cafes, restaurants and…      5.4    5.12  0.0549 
#>  9 Australian Capi… Cafes, restaurants and…  1982 Dec Australian Capi… Cafes, restaurants and…      6.9    6.88  0.00276
#> 10 Australian Capi… Cafes, restaurants and…  1983 Jan Australian Capi… Cafes, restaurants and…      3.8    4.25 -0.105  
#> # ... with 64,078 more rows
```

---

# Extract (broom::tidy)

```r
tidy(all_ets)
```

```
#> # A tibble: 2,433 x 4
#>    State                        Industry                                 term   estimate
#>    <chr>                        <chr>                                    <chr>     <dbl>
#>  1 Australian Capital Territory Cafes, restaurants and catering services alpha  0.520   
#>  2 Australian Capital Territory Cafes, restaurants and catering services beta   0.000100
#>  3 Australian Capital Territory Cafes, restaurants and catering services gamma  0.0800  
#>  4 Australian Capital Territory Cafes, restaurants and catering services l      4.08    
#>  5 Australian Capital Territory Cafes, restaurants and catering services b      0.130   
#>  6 Australian Capital Territory Cafes, restaurants and catering services s0    -0.291   
#>  7 Australian Capital Territory Cafes, restaurants and catering services s1    -0.852   
#>  8 Australian Capital Territory Cafes, restaurants and catering services s2    -0.488   
#>  9 Australian Capital Territory Cafes, restaurants and catering services s3     2.29    
#> 10 Australian Capital Territory Cafes, restaurants and catering services s4     0.799   
#> # ... with 2,423 more rows
```

---

# Extract (broom::glance)

```r
glance(all_ets)
```

```
#> # A tibble: 152 x 11
#>    State              Industry                               method   period  sigma logLik   AIC  AICc   BIC   MSE  AMSE
#>    <chr>              <chr>                                  <chr>     <dbl>  <dbl>  <dbl> <dbl> <dbl> <dbl> <dbl> <dbl>
#>  1 Australian Capita… Cafes, restaurants and catering servi… ETS(M,A…     12 0.0955 -1527. 3088. 3090. 3158. 2.99  4.08 
#>  2 Australian Capita… Cafes, restaurants and takeaway food … ETS(M,A…     12 0.0663 -1586. 3205. 3207. 3275. 3.77  5.81 
#>  3 Australian Capita… Clothing retailing                     ETS(M,A…     12 0.0767 -1228. 2489. 2491. 2558. 0.792 1.07 
#>  4 Australian Capita… Clothing, footwear and personal acces… ETS(M,A…     12 0.0623 -1350. 2735. 2736. 2804. 1.52  1.89 
#>  5 Australian Capita… Department stores                      ETS(M,A…     12 0.0619 -1481. 2997. 2998. 3066. 2.01  2.02 
#>  6 Australian Capita… Electrical and electronic goods retai… ETS(M,A…     12 0.0903 -1477. 2988. 2990. 3058. 2.45  3.56 
#>  7 Australian Capita… Food retailing                         ETS(M,A…     12 0.0330 -1725. 3483. 3485. 3553. 6.05  7.35 
#>  8 Australian Capita… Footwear and other personal accessory… ETS(M,A…     12 0.0666  -958. 1950. 1952. 2020. 0.341 0.420
#>  9 Australian Capita… Furniture, floor coverings, houseware… ETS(M,A…     12 0.0889 -1385. 2804. 2805. 2873. 2.30  3.10 
#> 10 Australian Capita… Hardware, building and garden supplie… ETS(M,A…     12 0.0918 -1282. 2599. 2600. 2668. 1.24  1.47 
#> # ... with 142 more rows
```

---

# Forecast

```r
all_fc <- all_ets %>% 
  forecast(h=12)
```

```
#> # A fable: 1,824 x 5 [1M]
#> # Key:     State, Industry [152]
#>    State                        Industry                                    Month Turnover .distribution  
#>  * <chr>                        <chr>                                       <mth>    <dbl> <dist>         
#>  1 Australian Capital Territory Cafes, restaurants and catering services 2018 Oct     42.0 N(42, sd = 4)  
#>  2 Australian Capital Territory Cafes, restaurants and catering services 2018 Nov     42.0 N(42, sd = 4.5)
#>  3 Australian Capital Territory Cafes, restaurants and catering services 2018 Dec     43.5 N(44, sd = 5.1)
#>  4 Australian Capital Territory Cafes, restaurants and catering services 2019 Jan     38.5 N(38, sd = 5.2)
#>  5 Australian Capital Territory Cafes, restaurants and catering services 2019 Feb     41.8 N(42, sd = 5.8)
#>  6 Australian Capital Territory Cafes, restaurants and catering services 2019 Mar     45.1 N(45, sd = 6.3)
#>  7 Australian Capital Territory Cafes, restaurants and catering services 2019 Apr     42.0 N(42, sd = 6.5)
#>  8 Australian Capital Territory Cafes, restaurants and catering services 2019 May     43.1 N(43, sd = 6.9)
#>  9 Australian Capital Territory Cafes, restaurants and catering services 2019 Jun     42.3 N(42, sd = 7.2)
#> 10 Australian Capital Territory Cafes, restaurants and catering services 2019 Jul     43.2 N(43, sd = 7.6)
#> # ... with 1,814 more rows
```

---

## Evaluate

```r
all_ets %>% accuracy()
```

```
#> # A tibble: 152 x 10
#> # Groups:   State [?]
#>    State              Industry                                 Type          ME  RMSE   MAE     MPE  MAPE     ACF1  MASE
#>    <chr>              <chr>                                    <chr>      <dbl> <dbl> <dbl>   <dbl> <dbl>    <dbl> <dbl>
#>  1 Australian Capita… Cafes, restaurants and catering services Traini… -0.0789  1.73  1.25  -1.39    7.05  1.09e-1 0.425
#>  2 Australian Capita… Cafes, restaurants and takeaway food se… Traini… -0.0728  1.94  1.40  -0.721   4.93  4.41e-2 0.403
#>  3 Australian Capita… Clothing retailing                       Traini…  0.00299 0.890 0.645 -0.533   5.81  1.51e-1 0.519
#>  4 Australian Capita… Clothing, footwear and personal accesso… Traini…  0.0422  1.23  0.861 -0.347   4.65  2.51e-1 0.567
#>  5 Australian Capita… Department stores                        Traini… -0.146   1.42  1.05  -0.805   4.53 -1.18e-1 0.751
#>  6 Australian Capita… Electrical and electronic goods retaili… Traini…  0.00335 1.56  1.09  -0.933   6.57  3.58e-2 0.497
#>  7 Australian Capita… Food retailing                           Traini…  0.112   2.46  1.82   0.0573  2.36  2.83e-2 0.314
#>  8 Australian Capita… Footwear and other personal accessory r… Traini…  0.0219  0.584 0.375 -0.403   4.98  2.23e-1 0.587
#>  9 Australian Capita… Furniture, floor coverings, houseware a… Traini… -0.0379  1.52  0.964 -0.953   6.35  6.48e-2 0.435
#> 10 Australian Capita… Hardware, building and garden supplies … Traini…  0.00548 1.11  0.751 -0.759   6.95  9.89e-4 0.572
#> # ... with 142 more rows
```
…
---

## Simulating future paths (`simulate()`)

---

## Interpolating missing values (`interpolate()`)

```r
tsibbledata::olympic_running
```

```
#> # A tsibble: 312 x 4 [4Y]
#> # Key:       Length, Sex [14]
#>     Year Length Sex    Time
#>    <dbl> <fct>  <chr> <dbl>
#>  1  1896 100m   men    12  
#>  2  1900 100m   men    11  
#>  3  1904 100m   men    11  
#>  4  1908 100m   men    10.8
#>  5  1912 100m   men    10.8
#>  6  1916 100m   men    NA  
#>  7  1920 100m   men    10.8
#>  8  1924 100m   men    10.6
#>  9  1928 100m   men    10.8
#> 10  1932 100m   men    10.3
#> # ... with 302 more rows
```
…
